{
  "images" : [
    {
      "idiom" : "universal",
      "scale" : "1x"
    },
    {
      "idiom" : "universal",
      "filename" : "圆角矩形 2 拷贝 2@2x.png",
      "scale" : "2x"
    },
    {
      "idiom" : "universal",
      "filename" : "圆角矩形 2 拷贝 2@3x.png",
      "scale" : "3x"
    }
  ],
  "info" : {
    "version" : 1,
    "author" : "xcode"
  }
}